Mid-term project
…
Here, we will extract the model residuals and calculate standardized residuals and keep in tidy format.

library(broom.mixed)

Warning: package 'broom.mixed' was built under R version 4.3.2

mod2_ma_resid <- augment(mod2_ma) %>% 
  mutate(.stdresid = resid(mod2_ma,
                           type = "pearson",
                           scaled = T
                           ))
mod2_ma_resid

# A tibble: 150 × 23
   plot  treatment    swc1  swc2  swc3  swc4  swc5  swc6   st1   st2   st3   st4
   <fct> <fct>       <dbl> <dbl> <dbl> <dbl> <dbl> <dbl> <dbl> <dbl> <dbl> <dbl>
 1 1     Disturbance 0.343 0.356 0.306 0.378 0.286 0.305  15.1  18.4  19.2  12.1
 2 1     Disturbance 0.343 0.356 0.306 0.378 0.286 0.305  15.1  18.4  19.2  12.1
 3 1     Disturbance 0.343 0.356 0.306 0.378 0.286 0.305  15.1  18.4  19.2  12.1
 4 1     Disturbance 0.343 0.356 0.306 0.378 0.286 0.305  15.1  18.4  19.2  12.1
 5 1     Disturbance 0.343 0.356 0.306 0.378 0.286 0.305  15.1  18.4  19.2  12.1
 6 1     Disturbance 0.343 0.356 0.306 0.378 0.286 0.305  15.1  18.4  19.2  12.1
 7 2     NPK Cessat… 0.317 0.356 0.365 0.309 0.370 0.295  17.0  19.0  18.7  11.9
 8 2     NPK Cessat… 0.317 0.356 0.365 0.309 0.370 0.295  17.0  19.0  18.7  11.9
 9 2     NPK Cessat… 0.317 0.356 0.365 0.309 0.370 0.295  17.0  19.0  18.7  11.9
10 2     NPK Cessat… 0.317 0.356 0.365 0.309 0.370 0.295  17.0  19.0  18.7  11.9
# ℹ 140 more rows
# ℹ 11 more variables: st5 <dbl>, st6 <dbl>, rep <fct>, respiration <dbl>,
#   date <date>, dar <dbl>, fdar <fct>, .fitted <dbl>, .resid <dbl>,
#   .fixed <dbl>, .stdresid <dbl>
…
